{
	"apiURL":"http://de.wikipedia.org/w/api.php?",
	"indexURL":"https://de.wikipedia.org/w/index.php?",
	"category":"Kategorie:Wikipedia:Gesprochener_Artikel",
	"outputDirectory":"german",
	"retrieve":"spoken_de",
	"skipAudio":"false"
}
