{
	"apiURL":"http://simple.wikipedia.org/w/api.php?",
	"indexURL","https://simple.wikipedia.org/w/index.php?",
	"category":"Category:Spoken_articles",
	"outputDirectory":"SIMPLE",
	"retrieve":"spoken_en"
}
